eda
…
Data Import

data <- read_csv('./data/surveydata.csv')

-- Column specification --------------------------------------------------------
cols(
  .default = col_double()
)
i Use `spec()` for the full column specifications.

data <- data %>% mutate(across(-c(ResponseID, Age), factor))

data

# A tibble: 122 x 51
   ResponseID   Age Race  Rel_stat Gen_id Geographic Acad_stat Sex_ori
        <dbl> <dbl> <fct> <fct>    <fct>  <fct>      <fct>     <fct>  
 1   57260650    20 4     1        2      3          3         1      
 2   57262669    NA 7     1        2      1          3         1      
 3   57262726    NA 4     1        2      2          2         1      
 4   57263988    18 4     1        2      2          1         3      
 5   57285198    18 4     1        2      2          1         1      
 6   57294490    NA 3     1        2      1          1         1      
 7   57299745    27 2     2        2      3          5         1      
 8   57344567    19 2     1        3      3          2         4      
 9   57353650    18 2     1        2      1          1         1      
10   58055650    18 4     1        2      1          1         2      
# ... with 112 more rows, and 43 more variables: Or_VagAnal <fct>,
#   Age_1stSex <fct>, SexPar_PYr <fct>, CU_lastSex <fct>, SubUse_lastSex <fct>,
#   CUfreq_Osex <fct>, CUfreq_Vsex <fct>, CUfreq_Asex <fct>, SEXpar_P6mo <fct>,
#   CU_BFGF <fct>, CUmultisex_oral <fct>, CUmultisex_vag <fct>,
#   CUmultisex_anal <fct>, CU_OsexFWB <fct>, CU_VsexFWB <fct>,
#   CU_AsexFWB <fct>, CU_OsexHkup <fct>, CU_VsexHkup <fct>, CU_AsexHkup <fct>,
#   Respon_CU <fct>, Discuss_CU <fct>, CU_uncomf <fct>,
#   C_break_slips_unrely <fct>, C_pleasant <fct>, C_dontprotectSTI <fct>,
#   CU_preventspots <fct>, Prefer_planB <fct>, partnerCU_Noshame <fct>,
…
data %>% count(TOT_Sexpart, SexPart_APP)

# A tibble: 22 x 3
   TOT_Sexpart SexPart_APP     n
   <fct>       <fct>       <int>
 1 1           0              14
 2 1           1               7
 3 1           <NA>            2
 4 2           0               9
 5 2           1              11
 6 2           <NA>            1
 7 3           0               3
 8 3           1              17
 9 3           <NA>            9
10 4           0               1
# ... with 12 more rows
…
UT Services vs Sex Partners vs. App Sex Partners

data %>%
  count(UTHC_serv, SexPart_APP, TOT_Sexpart)

# A tibble: 35 x 4
   UTHC_serv SexPart_APP TOT_Sexpart     n
   <fct>     <fct>       <fct>       <int>
 1 0         0           1              10
 2 0         0           2               7
 3 0         0           3               3
 4 0         0           5               1
 5 0         0           7               3
 6 0         0           <NA>            1
 7 0         1           1               3
 8 0         1           2               1
 9 0         1           3               3
10 0         1           4               4
# ... with 25 more rows
…
chisq.test(data_hctot)

    Pearson's Chi-squared test with Yates' continuity correction

data:  data_hctot
X-squared = 3.2095, df = 1, p-value = 0.07321

Type of Sex vs. Race, Age, and More EDA Plots

data %>% 
  count(Or_VagAnal, Race)

# A tibble: 27 x 3
   Or_VagAnal Race      n
   <fct>      <fct> <int>
 1 0          2         1
 2 0          4         1
 3 0          7         1
 4 1          1         2
 5 1          2         3
 6 1          3         3
 7 1          4         2
 8 1          5         1
 9 1          7         3
10 2          1         8
# ... with 17 more rows
…
